/home/esther/NetBeansProjects/UF1_PRACTICA_1_B/src/main/java/com/mycompany/uf1_practica_1_b/Ex4.java
/home/esther/NetBeansProjects/UF1_PRACTICA_1_B/src/main/java/com/mycompany/uf1_practica_1_b/Ex1.java
/home/esther/NetBeansProjects/UF1_PRACTICA_1_B/src/main/java/com/mycompany/uf1_practica_1_b/Ex2.java
/home/esther/NetBeansProjects/UF1_PRACTICA_1_B/src/main/java/com/mycompany/uf1_practica_1_b/Ex3.java
